﻿{
  "DataConnectionString": "Data Source=DESKTOP-939NM2N;Initial Catalog=\"Nopcommerce 4.3\";Integrated Security=False;Persist Security Info=False;User ID=sa;Password=cse123455",
  "DataProvider": "sqlserver",
  "RawDataSettings": {}
}