﻿{
  "Group": "Ninja Group",
  "FriendlyName": "NinjaSimplePlugin",
  "SystemName": "Ninja.plugsimple",
  "Version": "1.1",
  "SupportedVersions": [ "4.30" ],
  "Author": "Rijvi Ahmed",
  "DisplayOrder": 1,
  "FileName": "Nop.Plugin.Ninja.PlugSimple.dll",
  "Description": "Creadted by me"
}